Crowdfunding, R-project
…
WordsTotal <- plset_tfidf %>% 
  group_by(Word) %>% 
  summarize(total = sum(n))

plset_tfidf <- left_join(plset_tfidf, WordsTotal)

## Joining, by = "Word"

plset_tfidf <- plset_tfidf %>%
  bind_tf_idf(Word, X, n)

plset_tfidf %>%
  arrange(desc(tf_idf))

## # A tibble: 25,571 x 8
##        X RankSuccess Word           n total    tf   idf tf_idf
##    <int>       <dbl> <chr>      <int> <int> <dbl> <dbl>  <dbl>
##  1  2282           1      1     1  0.25  7.43   1.86
##  2  2282           1        1     3  0.25  6.33   1.58
##  3  2282           1        1     3  0.25  6.33   1.58
##  4   306           2        2     5  0.25  6.04   1.51
##  5   236           4         1     1  0.2   7.43   1.49
##  6   704           2         1     1  0.2   7.43   1.49
##  7   925           3        1     1  0.2   7.43   1.49
##  8   925           3           1     1  0.2   7.43   1.49
##  9   925           3      1     1  0.2   7.43   1.49
## 10  1491           2      1     1  0.2   7.43   1.49
## #  with 25,561 more rows

plset_tfidf %>%
  arrange(desc(-idf))

## # A tibble: 25,571 x 8
##        X RankSuccess Word        n total     tf   idf tf_idf
##    <int>       <dbl> <chr>   <int> <int>  <dbl> <dbl>  <dbl>
##  1     1           3      1   765 0.0667  1.03 0.0689
##  2     2           2      1   765 0.167   1.03 0.172 
##  3    10           2      1   765 0.0667  1.03 0.0689
##  4    11           3      1   765 0.0588  1.03 0.0608
##  5    25           2      3   765 0.158   1.03 0.163 
##  6    26           2      3   765 0.158   1.03 0.163 
##  7    32           4      1   765 0.0556  1.03 0.0574
##  8    37           2      1   765 0.0909  1.03 0.0939
##  9    42           2      1   765 0.0588  1.03 0.0608
## 10    52           2      1   765 0.0556  1.03 0.0574
## #  with 25,561 more rows
…
