Краудфандинг: сравнение скорости в зависимости от темы, месяца и адресата.
…
## # A tibble: 1 x 5
##   .y.       n effsize method  magnitude
## * <chr> <int>   <dbl> <chr>   <ord>    
## 1 Rate   1923  0.0617 eta2[H] moderate

The interpretation values commonly published in literature are: 0.01- < 0.06 (small effect), 0.06 - < 0.14 (moderate effect) and >= 0.14 (large effect). В наших данных получилось moderate. Sо from the output of the Kruskal-Wallis test, we know that there is a significant difference between groups, but we don’t know which pairs of groups are different. A significant Kruskal-Wallis test is generally followed up by Dunn’s test to identify which groups are different.

Применим тест Данна. В параметрах можно указывать поправку на множественные сравнения. Самая жесткая поправка - это поправка Бонферрони. Она нужна, чтобы если делается много текстов, не накапливалась ошибка первого рода. Уровень значимости делится на число сравнений, эта откорректированная величина используется вместо обычных 5% для того, чтобы решать, значимы результаты теста или не значимы. После поправки Бонферрони есть риск не обнаружить различия там, где они есть (ошибка второго рода). В нашем случае стогость уместна.

dunn <- plset_short %>% 
  dunn_test(Rate ~ Category, p.adjust.method = "bonferroni")
dunn

## # A tibble: 120 x 9
##    .y.   group1    group2       n1    n2 statistic        p   p.adj p.adj.signif
##  * <chr> <chr>     <chr>     <int> <int>     <dbl>    <dbl>   <dbl> <chr>       
##  1 Rate  активизм… бездомны…    77    34     1.19  2.32e- 1 1.00e+0 ns          
##  2 Rate  активизм… взрослые…    77    70     2.17  2.98e- 2 1.00e+0 ns          
##  3 Rate  активизм… дети_леч…    77   508     1.79  7.28e- 2 1.00e+0 ns          
##  4 Rate  активизм… животные     77   243     6.26  3.81e-10 4.57e-8 ****        
##  5 Rate  активизм… заключен…    77     4    -0.526 5.99e- 1 1.00e+0 ns          
##  6 Rate  активизм… малоимущ…    77    63    -0.589 5.56e- 1 1.00e+0 ns          
##  7 Rate  активизм… мечты_по…    77    86     0.437 6.62e- 1 1.00e+0 ns          
##  8 Rate  активизм… наука_ис…    77    10     1.05  2.96e- 1 1.00e+0 ns          
##  9 Rate  активизм… паллиати…    77    56     1.93  5.33e- 2 1.00e+0 ns          
## 10 Rate  активизм… пожилые_…    77    42     1.81  7.09e- 2 1.00e+0 ns          
## # … with 110 more rows
…
## ANOVA Table (type II tests)
## 
##     Effect DFn  DFd     F        p p<.05   ges
## 1 Category  15 1718 8.133 4.04e-18     * 0.066

The null hypothesis in ANOVA is always that there is no difference in means. Мы получили p-value значительно меньше 0.05, поэтому можем отвергнуть решение, что разницы средних между категориями нет. То есть анова подтвердила то, что показал тест Краскела-Уоллиса ранее. The column ges (generalized effect size) corresponds to the generalized eta squared (effect size). It measures the proportion of the variability in the outcome variable that can be explained in terms of the predictor. An effect size of 0.26 (26%) means that 26% of the change in the variable can be accounted for the predictor conditions. В нашем случае получилось около 6%.

Тест Тьюки показывает попарное сравнение (как тест Данна для Краскела).

tuk <- plset_short_out %>% 
  tukey_hsd(Rate ~ Category)
tuk 

## # A tibble: 120 x 8
##    term   group1      group2    estimate conf.low conf.high   p.adj p.adj.signif
##  * <chr>  <chr>       <chr>        <dbl>    <dbl>     <dbl>   <dbl> <chr>       
##  1 Categ… активизм_п… бездомны…   274.      -650.     1198. 1.00e+0 ns          
##  2 Categ… активизм_п… взрослые…   169.      -574.      913. 1.00e+0 ns          
##  3 Categ… активизм_п… дети_леч…    88.6     -452.      629. 1.00e+0 ns          
##  4 Categ… активизм_п… животные    817.       232.     1403. 2.06e-4 ***         
##  5 Categ… активизм_п… заключен…  -985.     -3528.     1559. 9.95e-1 ns          
##  6 Categ… активизм_п… малоимущ…  -243.      -990.      504. 9.99e-1 ns          
##  7 Categ… активизм_п… мечты_по…     9.99    -681.      701. 1.00e+0 ns          
##  8 Categ… активизм_п… наука_ис…   467.      -988.     1922. 9.99e-1 ns          
##  9 Categ… активизм_п… паллиати…   107.      -679.      893. 1.00e+0 ns          
## 10 Categ… активизм_п… пожилые_…   215.      -632.     1063. 1.00e+0 ns          
## # … with 110 more rows
…
no significant outliers in the two groups

the two groups of samples (A and B), being compared, should be normally distributed.

the variances of the two groups should not be significantly different. This assumption is made only by the original Student’s t-test. It is relaxed in the Welch’s t-test.

Выбросы.

# Выбросы
adr_set %>%
  group_by(Adr) %>%
  identify_outliers(Rate)

## # A tibble: 199 x 5
##    Adr   Title                                        Rate is.outlier is.extreme
##    <lgl> <fct>                                       <dbl> <lgl>      <lgl>     
##  1 FALSE "Оплата нянечек для отказных детей в больн…  9240 TRUE       TRUE      
##  2 FALSE "Молодые и перспективные: поддержи детей-с… 20740 TRUE       TRUE      
##  3 FALSE "Муравей для \"Созидания\""                  5250 TRUE       FALSE     
##  4 FALSE "2 Благотворительный Рок-Аукцион «Разные Л…  7840 TRUE       FALSE     
##  5 FALSE "КЕРАМИКА НА ОЩУПЬ"                         12520 TRUE       TRUE      
##  6 FALSE "Строительство домика для собак-инвалидов!" 18330 TRUE       TRUE      
##  7 FALSE "Покупаем газель для тех, кому #НечегоНаде…  9540 TRUE       TRUE      
##  8 FALSE "Больным собакам жизненно нужен лечебный к…  6360 TRUE       FALSE     
##  9 FALSE "От сердца к сердцу"                        27810 TRUE       TRUE      
## 10 FALSE "Документальный фильм \"Второе дыхание\""    9560 TRUE       TRUE      
## # … with 189 more rows
…
